<?xml version="1.0" encoding="UTF-8"?>
<svg width="48px" height="44px" viewBox="0 0 48 44" version="1.1" xmlns="http://www.w3.org/2000/svg" xmlns:xlink="http://www.w3.org/1999/xlink">
    <!-- Generator: Sketch 52.5 (67469) - http://www.bohemiancoding.com/sketch -->
    <title>get-money copy 5</title>
    <desc>Created with Sketch.</desc>
    <g id="Page-1" stroke="none" stroke-width="1" fill="none" fill-rule="evenodd">
        <g id="get-money-copy-5" fill="#3E3D3C">
            <g id="computer">
                <path d="M43.4329834,5.31333744e-15 L11.8341065,5.31333744e-15 C11.4404297,5.31333744e-15 11.1210938,0.318393158 11.1210938,0.710907683 C11.1210938,1.10342221 11.4404297,1.42145017 11.8341065,1.42145017 L43.4329834,1.42145017 C45.1651612,1.42145017 46.5743408,2.82646952 46.5743408,4.55316826 L46.5743408,29.8460724 C46.5743408,31.5731363 45.1651612,32.9777905 43.4329834,32.9777905 L4.56665044,32.9777905 C2.83483884,32.9777905 1.42565916,31.5731363 1.42565916,29.8460724 L1.42565916,4.55316826 C1.42565916,2.82646952 2.83483884,1.42145017 4.56665044,1.42145017 L8.98242188,1.42145017 C9.37609866,1.42145017 9.69543459,1.10342221 9.69543459,0.710907683 C9.69543459,0.318393158 9.37609866,0 8.98242188,0 L4.56665044,0 C2.04858394,0 0,2.04253588 0,4.55316826 L0,29.8460724 C0,32.3567047 2.04858394,34.3992407 4.56665044,34.3992407 L16.0297852,34.3992407 L14.6334229,38.9483925 L12.0157471,38.9483925 C10.6790771,38.9483925 9.59216306,40.0324627 9.59216306,41.3648212 C9.59216306,42.6975448 10.6790771,43.78125 12.0157471,43.78125 L35.9842529,43.78125 C37.3205567,43.78125 38.4078369,42.6975448 38.4078369,41.3648212 C38.4078369,40.0324627 37.3205567,38.9483925 35.9842529,38.9483925 L33.3665771,38.9483925 L31.9702148,34.3992407 L43.4329834,34.3992407 C45.9514161,34.3992407 48,32.3567047 48,29.8460724 L48,4.55316826 C48,2.04253588 45.9514161,5.31333744e-15 43.4329834,5.31333744e-15 Z M36.9821777,41.3651863 C36.9821777,41.9136113 36.5343018,42.360165 35.9842529,42.360165 L12.0157471,42.360165 C11.465332,42.360165 11.0178223,41.9136113 11.0178223,41.3651863 C11.0178223,40.8163963 11.465332,40.3702077 12.0157471,40.3702077 L35.9842529,40.3702077 C36.5343018,40.3702077 36.9821777,40.8163963 36.9821777,41.3651863 Z M31.8753662,38.9483925 L16.1246338,38.9483925 L17.5206299,34.3996058 L30.4793701,34.3996058 L31.8753662,38.9483925 Z" id="Shape" fill-rule="nonzero"></path>
                <path d="M43.5044566,23.083783 C43.8988933,23.083783 44.2181818,22.7661323 44.2181818,22.3745331 L44.2181818,4.54311078 C44.2181818,4.12309793 43.8746992,3.7817691 43.4520361,3.7817691 L4.54649753,3.7817691 C4.12493415,3.7817691 3.78181818,4.12309793 3.78181818,4.54311078 L3.78181818,27.6543828 C3.78181818,28.0459819 4.10110668,28.3632683 4.49517676,28.3632683 L43.5044566,28.3632683 C43.8988933,28.3632683 44.2181818,28.0459819 44.2181818,27.6543828 L44.2181818,25.2111682 C44.2181818,24.819569 43.8988933,24.5022827 43.5044566,24.5022827 C43.1103864,24.5022827 42.791098,24.819569 42.791098,25.2111682 L42.791098,26.9451329 L5.20890199,26.9451329 L5.20890199,5.19990447 L42.791098,5.19990447 L42.791098,22.3745331 C42.791098,22.7664966 43.1103864,23.083783 43.5044566,23.083783 Z" id="Path"></path>
                <path d="M24.6067823,30.141978 C24.4472881,29.8989757 24.1425269,29.7744745 23.8583577,29.8314751 C23.5476061,29.8937257 23.3061184,30.1599782 23.2761664,30.4764812 C23.2132673,31.1364875 24.0279607,31.5336163 24.5060688,31.0738618 C24.7584142,30.8308595 24.7988493,30.4337308 24.6067823,30.141978 Z" id="Path"></path>
            </g>
        </g>
    </g>
</svg>